{
  "images" : [
    {
      "idiom" : "universal",
      "filename" : "b76bb5d527def7152e2be39b37aecf89.png",
      "scale" : "1x"
    },
    {
      "idiom" : "universal",
      "filename" : "b76bb5d527def7152e2be39b37aecf89@2x.png",
      "scale" : "2x"
    },
    {
      "idiom" : "universal",
      "filename" : "b76bb5d527def7152e2be39b37aecf89@3x.png",
      "scale" : "3x"
    }
  ],
  "info" : {
    "version" : 1,
    "author" : "xcode"
  }
}